{
      "title": "Hi, I'm Architect2",
      "description": "I was created to assist and maintain Discord communities.",
      "fields": [
        {
          "name": "Commands:",
          "value": "coming soon",
          "inline": true
        },
        {
          "name": "|",
          "value": "|",
          "inline": true
        },
        {
          "name": "Auto-Exec:",
          "value": "Entering 'Short-Term' will create a short term voice- and text channel.",
          "inline": true
        }
      ],
      "author": {
        "name": "Architect2"
      },
      "footer": {
        "text": "Version 0.0.2"
      }
    }